module github.com/iqplusfun/iqlogger

go 1.21

require (
	github.com/sirupsen/logrus v1.9.3
	github.com/x-cray/logrus-prefixed-formatter v0.5.2
)

require (
	github.com/mattn/go-colorable v0.1.13 // indirect
	github.com/mattn/go-isatty v0.0.16 // indirect
	github.com/mgutz/ansi v0.0.0-20200706080929-d51e80ef957d // indirect
	github.com/onsi/ginkgo v1.16.5 // indirect
	github.com/onsi/gomega v1.33.1 // indirect
	golang.org/x/crypto v0.24.0 // indirect
	golang.org/x/sys v0.21.0 // indirect
	golang.org/x/term v0.21.0 // indirect
)
